<svg width="40" height="40" viewBox="0 0 40 40" fill="none" xmlns="http://www.w3.org/2000/svg">
<rect x="0.5" y="0.5" width="39" height="39" rx="4.5" stroke="#144327"/>
<path d="M11 11.5166L14 33.3333H26L29 11.5166" stroke="#144327" stroke-width="1.66667"/>
<path d="M10 11.1116H30" stroke="#144327" stroke-width="1.66667" stroke-linecap="round"/>
<path d="M24.2851 11.6666V9.99996C24.2851 9.1159 23.9339 8.26806 23.3088 7.64294C22.6837 7.01782 21.8359 6.66663 20.9518 6.66663H19.0501C18.1661 6.66663 17.3182 7.01782 16.6931 7.64294C16.068 8.26806 15.7168 9.1159 15.7168 9.99996V11.6666" stroke="#144327" stroke-width="1.66667"/>
<path d="M19.9667 17.5766V27.2749M16 17.575L17 27.2749M24 17.5766L23 27.2749" stroke="#144327" stroke-width="1.66667" stroke-linecap="round"/>
</svg>
